<svg xmlns="http://www.w3.org/2000/svg" width="12.818" height="10.646" viewBox="0 0 12.818 10.646">
  <g id="Group_3098" data-name="Group 3098" transform="translate(-11949.783 -10908.109)">
    <g id="Group_3097" data-name="Group 3097">
      <path id="Path_3220" data-name="Path 3220" d="M11951.168,10918.6a8.538,8.538,0,0,0,1-1.873c-.043-.029-.084-.059-.131-.087a4.826,4.826,0,0,1-1.963-2.267,3.739,3.739,0,0,1,.583-3.846,5.964,5.964,0,0,1,2.975-2.013,8.092,8.092,0,0,1,3.243-.374,7.31,7.31,0,0,1,3.664,1.258,4.636,4.636,0,0,1,1.828,2.277,3.755,3.755,0,0,1-.64,3.711,6.014,6.014,0,0,1-2.952,2,8.222,8.222,0,0,1-3.414.368c-.264-.023-.525-.084-.789-.115a.278.278,0,0,0-.189.052,5.246,5.246,0,0,1-1.764.964A2.142,2.142,0,0,1,11951.168,10918.6Z" fill="#e13953" fill-rule="evenodd"/>
    </g>
  </g>
</svg>
