<svg xmlns="http://www.w3.org/2000/svg" width="155.537" height="155.472" viewBox="0 0 155.537 155.472">
  <g id="smile" transform="translate(0 -0.047)">
    <g id="Layer_1" data-name="Layer 1" transform="translate(0 0.047)">
      <path id="Path_14" data-name="Path 14" d="M0,82.441V71.746c.75-4.6,1.22-9.381,2.345-13.79a77.956,77.956,0,0,1,152.066,6.285c0,2.533.751,5.066,1.126,7.6v12.2c-.469,3.283-.938,6.473-1.595,9.381a78.05,78.05,0,0,1-62.384,60.977l-7.13,1.126h-13.6c-3.752-.657-7.692-1.032-11.351-1.97A77.862,77.862,0,0,1,1.22,90.978,53.468,53.468,0,0,1,0,82.441Zm77.956-75.8a70.921,70.921,0,1,0,71.014,70.827A70.921,70.921,0,0,0,77.956,6.642Z" transform="translate(0 -0.047)" fill="#fff" fill-rule="evenodd"/>
      <path id="Path_15" data-name="Path 15" d="M49.549,41.922A54.973,54.973,0,0,1,6.4,19.5a33.582,33.582,0,0,1-2.814-4.315A3.471,3.471,0,0,1,4.8,10.308,3.565,3.565,0,0,1,9.68,11.621,48.875,48.875,0,0,0,57.054,34.6,47.937,47.937,0,0,0,93.64,14.717c.657-.938,1.313-1.97,1.876-2.908a3.565,3.565,0,0,1,4.972-1.5,3.471,3.471,0,0,1,1.22,5.066A49.625,49.625,0,0,1,88.2,30.2a59.757,59.757,0,0,1-38.65,11.726Z" transform="translate(25.499 81.936)" fill="#fff" fill-rule="evenodd"/>
      <path id="Path_16" data-name="Path 16" d="M4.54,15.911a10.6,10.6,0,1,1,10.6,10.6A10.6,10.6,0,0,1,4.54,15.911Z" transform="translate(38.05 44.063)" fill="#fff" fill-rule="evenodd"/>
      <path id="Path_17" data-name="Path 17" d="M9.83,15.922A10.647,10.647,0,1,1,20.477,26.57,10.647,10.647,0,0,1,9.83,15.922Z" transform="translate(82.385 43.769)" fill="#fff" fill-rule="evenodd"/>
    </g>
  </g>
</svg>
