<?xml version="1.0" encoding="utf-8"?>
<!-- Generator: Adobe Illustrator 16.0.0, SVG Export Plug-In . SVG Version: 6.00 Build 0)  -->
<!DOCTYPE svg PUBLIC "-//W3C//DTD SVG 1.1//EN" "http://www.w3.org/Graphics/SVG/1.1/DTD/svg11.dtd">
<svg version="1.1" id="Layer_1" xmlns="http://www.w3.org/2000/svg" xmlns:xlink="http://www.w3.org/1999/xlink" x="0px" y="0px"
	 width="100px" height="100px" viewBox="0 0 100 100" enable-background="new 0 0 100 100" xml:space="preserve">
<g id="Layer_2">
</g>
<g>
	<g>
		<path fill-rule="evenodd" clip-rule="evenodd" fill="#EFEFEF" d="M21.128,86.667c0-9.147,0-18.295,0-27.443
			c0.026-0.091,0.057-0.178,0.067-0.272c0.43-4.29,3.505-8.041,7.648-9.228c1.002-0.292,2.06-0.41,3.153-0.611
			c0-0.041-0.002-0.168,0-0.292c0.044-1.55,0.033-3.1,0.145-4.643c0.191-2.576,0.792-5.072,1.858-7.437
			c1.922-4.267,4.984-7.373,9.423-8.979c3.888-1.402,7.85-1.486,11.839-0.423c3.696,0.993,6.664,3.07,8.906,6.186
			c2.008,2.798,3.068,5.964,3.559,9.342c0.288,1.963,0.303,3.942,0.278,5.914c0,0.144,0,0.282,0,0.43
			c0.329,0.023,0.606,0.047,0.893,0.07c4.465,0.339,8.342,3.505,9.543,7.819c0.205,0.738,0.288,1.513,0.433,2.268
			c0,9.054,0,18.101,0,27.155c-0.023,0.104-0.05,0.205-0.063,0.312c-0.419,4.458-3.499,8.175-7.819,9.409
			c-0.694,0.195-1.412,0.289-2.124,0.426c-12.581,0-25.148,0-37.729,0c-0.08-0.02-0.153-0.05-0.236-0.057
			c-4.446-0.456-8.136-3.553-9.35-7.856C21.356,88.077,21.269,87.362,21.128,86.667z M50,90.391c5.979,0,11.953,0.007,17.93,0
			c2.651-0.003,4.659-1.992,4.659-4.622c0.004-8.548,0.004-17.099,0-25.649c0-2.61-2.019-4.605-4.635-4.609
			c-11.962-0.003-23.935-0.003-35.901,0c-2.629,0.004-4.645,2.006-4.645,4.643c0,8.538,0,17.074,0.01,25.615
			c0,0.365,0.034,0.741,0.124,1.093c0.487,2.107,2.312,3.526,4.526,3.529C38.045,90.397,44.02,90.391,50,90.391z M60.282,49.221
			c0-1.016,0.026-2.002-0.003-2.988c-0.059-1.926-0.333-3.817-1.001-5.636c-0.916-2.469-2.435-4.408-4.932-5.44
			c-2.066-0.859-4.229-0.973-6.423-0.631c-1.982,0.308-3.714,1.15-5.093,2.649c-1.382,1.503-2.144,3.318-2.619,5.273
			c-0.53,2.201-0.526,4.438-0.493,6.676c0,0.03,0.023,0.067,0.044,0.097C46.589,49.221,53.411,49.221,60.282,49.221z"/>
		<path fill-rule="evenodd" clip-rule="evenodd" fill="#EFEFEF" d="M55.143,70.649c-0.043,1.523-0.805,2.962-2.308,3.985
			c-0.199,0.141-0.265,0.278-0.265,0.52c0.002,1.855,0.016,3.713,0,5.568c-0.014,1.204-0.866,2.208-2.047,2.462
			c-1.157,0.241-2.357-0.332-2.831-1.426c-0.164-0.366-0.245-0.802-0.251-1.208c-0.027-1.808-0.021-3.616,0-5.427
			c0-0.232-0.081-0.359-0.276-0.483c-1.932-1.292-2.764-3.636-2.069-5.82c0.698-2.194,2.761-3.646,5.08-3.589
			C52.915,65.309,55.14,67.604,55.143,70.649z"/>
	</g>
	<g>
		<path fill-rule="evenodd" clip-rule="evenodd" fill="#EFEFEF" d="M35.844,16.417c-1.438-0.97-2.817-1.905-4.28-2.895
			c0.792-0.966,1.52-1.929,2.325-2.828c2.12-2.371,4.495-4.468,7.427-5.762c5.632-2.486,11.141-2.033,16.421,1.05
			c2.082,1.218,3.96,2.73,5.544,4.582c0.164,0.194,0.315,0.392,0.483,0.604c1.208-0.684,2.392-1.355,3.579-2.026
			c0.121-0.074,0.242-0.147,0.369-0.201c0.413-0.161,0.657-0.021,0.719,0.419c0.02,0.151,0.013,0.309,0.013,0.47
			c0.003,4.405,0.003,8.812,0,13.22c0,1.288-0.318,1.489-1.437,0.866c-3.753-2.107-7.503-4.227-11.254-6.344
			c-0.185-0.104-0.369-0.198-0.554-0.305c-0.55-0.329-0.54-0.658,0.03-0.986c0.477-0.272,0.956-0.537,1.433-0.812
			c0.792-0.449,1.583-0.906,2.385-1.365c-0.05-0.077-0.07-0.131-0.107-0.171c-2.321-2.644-5.155-4.482-8.597-5.186
			c-3.466-0.711-6.652,0.174-9.53,2.173c-1.929,1.345-3.448,3.093-4.7,5.082C36.028,16.132,35.945,16.26,35.844,16.417z"/>
	</g>
</g>
</svg>
