<?xml version="1.0" encoding="utf-8"?>
<!-- Generator: Adobe Illustrator 16.0.0, SVG Export Plug-In . SVG Version: 6.00 Build 0)  -->
<!DOCTYPE svg PUBLIC "-//W3C//DTD SVG 1.1//EN" "http://www.w3.org/Graphics/SVG/1.1/DTD/svg11.dtd">
<svg version="1.1" id="Layer_1" xmlns="http://www.w3.org/2000/svg" xmlns:xlink="http://www.w3.org/1999/xlink" x="0px" y="0px"
	 width="100px" height="100px" viewBox="0 0 100 100" enable-background="new 0 0 100 100" xml:space="preserve">
<g id="Layer_2">
</g>
<path fill-rule="evenodd" clip-rule="evenodd" fill="#EFEFEF" d="M24.006,93.229c-0.758-0.454-1.641-0.373-2.438-0.541
	C11.758,90.754,4.137,82.653,2.93,72.712c-0.9-7.492,1.318-14.013,6.604-19.373c9.014-9.133,18.141-18.179,27.219-27.256
	c1.286-1.274,1.814-1.274,3.133,0c0.417,0.423,0.846,0.833,1.244,1.287c0.845,0.92,0.839,1.69-0.063,2.599
	c-1.754,1.754-3.52,3.469-5.285,5.21c-7.461,7.379-14.934,14.74-22.369,22.146c-3.506,3.519-5.209,7.833-5.16,12.782
	c0.081,8.735,7,16.314,15.654,17.327c6.031,0.69,11.161-1.187,15.443-5.402c8.568-8.456,17.11-16.917,25.678-25.366
	c7.958-7.847,15.94-15.68,23.893-23.531c4.613-4.576,4.905-11.731,0.69-16.488c-4.75-5.396-12.82-5.714-17.974-0.665
	c-6.678,6.56-13.324,13.168-19.977,19.751c-9.064,8.96-18.141,17.918-27.193,26.883c-2.748,2.723-2.6,6.789,0.273,9.307
	c2.461,2.145,6.198,2.002,8.617-0.361c2.338-2.3,4.662-4.632,6.988-6.963C48.303,56.69,56.236,48.794,64.2,40.886
	c1.337-1.33,2.22-1.33,3.587-0.006c1.928,1.834,1.94,2.405,0.069,4.265c-10.054,9.96-20.101,19.926-30.147,29.898
	c-4.402,4.345-10.531,5.104-15.469,1.94c-6.453-4.16-7.422-13.043-1.939-18.428c11.277-11.122,22.58-22.232,33.859-33.348
	c4.413-4.365,8.828-8.724,13.254-13.057c7.374-7.243,18.714-7.162,25.938,0.187c6.131,6.199,6.553,16.594,0.901,23.32
	c-2.269,2.68-4.905,4.986-7.417,7.461c-9.251,9.17-18.515,18.321-27.784,27.474c-5.44,5.377-10.861,10.755-16.357,16.071
	c-3.781,3.688-8.388,5.701-13.615,6.366c-0.199,0.025-0.461-0.068-0.572,0.199c-0.316,0-0.635,0-0.945,0
	c-0.746-0.168-1.504-0.168-2.25,0C24.877,93.229,24.43,93.229,24.006,93.229z"/>
</svg>
