<?xml version="1.0" encoding="utf-8"?>
<!-- Generator: Adobe Illustrator 16.0.0, SVG Export Plug-In . SVG Version: 6.00 Build 0)  -->
<!DOCTYPE svg PUBLIC "-//W3C//DTD SVG 1.1//EN" "http://www.w3.org/Graphics/SVG/1.1/DTD/svg11.dtd">
<svg version="1.1" id="Layer_1" xmlns="http://www.w3.org/2000/svg" xmlns:xlink="http://www.w3.org/1999/xlink" x="0px" y="0px"
	 width="100px" height="100px" viewBox="0 0 100 100" enable-background="new 0 0 100 100" xml:space="preserve">
<g>
	<path fill-rule="evenodd" clip-rule="evenodd" fill="#EFEFEF" d="M34.124,10.076c0,2.089,0,4.028,0,6.22c-4.714,0-9.379,0-14.153,0
		c0,25.283,0,50.316,0,75.655c0.692,0,1.378,0,2.063,0c12.143,0,24.284,0.016,36.427-0.022c1.219-0.007,2.115,0.299,2.975,1.192
		c1.562,1.619,3.261,3.108,4.898,4.649c-0.074,0.159-0.15,0.316-0.226,0.474c-0.549,0.036-1.092,0.106-1.638,0.106
		c-14.225,0.003-28.454-0.077-42.675,0.056c-3.995,0.038-8.406-3.141-8.37-8.417c0.175-24.222,0.073-48.449,0.076-72.672
		c0.004-4.165,2.22-6.945,6.319-7.177C24.542,9.873,29.295,10.076,34.124,10.076z"/>
	<path fill-rule="evenodd" clip-rule="evenodd" fill="#EFEFEF" d="M76.863,77.771c0-20.393,0-40.785,0-61.449
		c-3.162,0-6.173,0-9.188,0c-4.303,0-4.303,0-4.289-4.282c0.003-0.587,0-1.171,0-1.867c0.6-0.081,1.052-0.19,1.5-0.19
		c4.108-0.013,8.215-0.035,12.323,0.003c3.729,0.033,5.703,1.887,6.052,5.601c0.058,0.652,0.052,1.309,0.052,1.963
		c0.003,17.443-0.017,34.886,0.035,52.333c0.006,1.505-0.429,2.566-1.52,3.568c-1.565,1.441-2.992,3.041-4.475,4.572
		C77.19,77.939,77.026,77.855,76.863,77.771z"/>
	<path fill-rule="evenodd" clip-rule="evenodd" fill="#EFEFEF" d="M71.85,89.159c3.621-3.708,7.137-7.329,10.681-10.927
		c3.004-3.054,5.992-6.128,9.101-9.079c0.748-0.71,2.003-1.42,2.907-1.29c0.97,0.135,2.239,1.1,2.567,1.996
		c0.323,0.887-0.034,2.418-0.675,3.186c-1.704,2.054-3.72,3.847-5.612,5.743c-5.43,5.433-10.852,10.865-16.289,16.292
		c-2.123,2.118-3.629,2.108-5.77-0.023c-3.67-3.656-7.331-7.319-10.985-10.988c-1.832-1.837-2.034-3.508-0.626-4.976
		c1.474-1.534,3.166-1.383,5.11,0.542c2.709,2.676,5.378,5.397,8.066,8.092C70.732,88.136,71.167,88.521,71.85,89.159z"/>
	<path fill-rule="evenodd" clip-rule="evenodd" fill="#EFEFEF" d="M55.224,7.277c0.483,0.064,1.008,0.125,1.529,0.209
		c1.682,0.281,2.704,1.286,2.811,2.969c0.116,1.773,0.13,3.569,0,5.343c-0.136,1.841-1.392,3.014-3.344,3.043
		c-4.933,0.071-9.865,0.071-14.8,0c-2.008-0.029-3.246-1.247-3.381-3.211c-0.113-1.657-0.116-3.333,0-4.991
		c0.148-2.15,1.092-2.836,4.23-3.378c1.728-4.808,3.572-6.481,6.912-6.271C52.368,1.194,54.246,3.125,55.224,7.277z M45.654,7.187
		c2.178,0,4.256,0,6.355,0c-0.288-2.099-1.423-3.243-3.135-3.278C47.141,3.87,45.943,5.008,45.654,7.187z"/>
	<path fill-rule="evenodd" clip-rule="evenodd" fill="#EFEFEF" d="M48.579,51.033c-5.949,0-11.902,0.002-17.852-0.004
		c-0.533,0-1.161,0.109-1.575-0.129c-0.503-0.287-1.188-0.938-1.137-1.345c0.071-0.544,0.705-1.109,1.234-1.46
		c0.338-0.226,0.925-0.094,1.398-0.094c12.081-0.003,24.163-0.006,36.24,0c1.17,0.003,2.728-0.213,2.733,1.467
		c0.011,1.799-1.609,1.551-2.834,1.558c-3.032,0.019-6.069,0.006-9.104,0.006S51.612,51.033,48.579,51.033z"/>
	<path fill-rule="evenodd" clip-rule="evenodd" fill="#EFEFEF" d="M48.945,57.329c5.95,0,11.901-0.003,17.851,0
		c0.535,0,1.15-0.128,1.583,0.091c0.515,0.261,1.234,0.861,1.205,1.267c-0.041,0.545-0.625,1.177-1.142,1.519
		c-0.387,0.257-1.035,0.151-1.566,0.151c-12.021,0.007-24.04,0.003-36.06,0.003c-0.236,0-0.475,0.007-0.714-0.003
		c-1.075-0.044-2.183-0.248-2.143-1.583c0.043-1.341,1.174-1.445,2.244-1.445C36.449,57.329,42.697,57.329,48.945,57.329z"/>
	<path fill-rule="evenodd" clip-rule="evenodd" fill="#EFEFEF" d="M48.943,42.521c-6.068,0-12.14,0.003-18.208-0.007
		c-0.589,0-1.259,0.083-1.746-0.162c-0.456-0.225-0.974-0.829-0.986-1.277c-0.014-0.448,0.474-1.105,0.911-1.321
		c0.545-0.271,1.27-0.239,1.915-0.239c11.963-0.013,23.92-0.017,35.88,0c1.208,0,2.869-0.29,2.913,1.483
		c0.048,1.847-1.627,1.508-2.826,1.515C60.843,42.531,54.896,42.521,48.943,42.521z"/>
	<path fill-rule="evenodd" clip-rule="evenodd" fill="#EFEFEF" d="M48.866,65.793c5.948,0,11.896,0,17.846,0
		c0.474,0,1.045-0.155,1.404,0.052c0.594,0.339,1.053,0.916,1.564,1.389c-0.49,0.506-0.921,1.11-1.499,1.48
		c-0.349,0.223-0.925,0.094-1.402,0.094c-11.955,0.002-23.91,0.009-35.866-0.007c-1.217,0-2.879,0.262-2.913-1.489
		c-0.04-1.805,1.63-1.508,2.842-1.512C36.853,65.786,42.858,65.793,48.866,65.793z"/>
	<path fill-rule="evenodd" clip-rule="evenodd" fill="#EFEFEF" d="M48.943,34.067c-5.946,0-11.894,0-17.843,0
		c-0.474,0-1.035,0.151-1.406-0.048c-0.652-0.345-1.181-0.91-1.761-1.383c0.606-0.51,1.193-1.055,1.843-1.506
		c0.202-0.139,0.58-0.029,0.875-0.029c12.075,0,24.147-0.004,36.222,0.006c1.157,0.003,2.723-0.265,2.746,1.435
		c0.023,1.866-1.644,1.505-2.834,1.512c-4.816,0.028-9.634,0.013-14.45,0.013C51.203,34.067,50.075,34.067,48.943,34.067z"/>
</g>
<g id="Layer_2">
</g>
</svg>
