<?xml version="1.0" encoding="utf-8"?>
<!-- Generator: Adobe Illustrator 16.0.0, SVG Export Plug-In . SVG Version: 6.00 Build 0)  -->
<!DOCTYPE svg PUBLIC "-//W3C//DTD SVG 1.1//EN" "http://www.w3.org/Graphics/SVG/1.1/DTD/svg11.dtd">
<svg version="1.1" id="Layer_1" xmlns="http://www.w3.org/2000/svg" xmlns:xlink="http://www.w3.org/1999/xlink" x="0px" y="0px"
	 width="100px" height="100px" viewBox="0 0 100 100" enable-background="new 0 0 100 100" xml:space="preserve">
<g id="Layer_2">
</g>
<g>
	<g>
		<g>
			<path fill-rule="evenodd" clip-rule="evenodd" fill="none" stroke="#2E0F00" stroke-miterlimit="10" d="M98.055,49.854
				c0,26.516-21.277,48.016-47.51,48.016c-26.225,0-47.49-21.5-47.49-48.016c0-26.532,21.266-48.033,47.49-48.033
				C76.777,1.821,98.055,23.322,98.055,49.854z"/>
		</g>
		<g>
			<path fill-rule="evenodd" clip-rule="evenodd" fill="#2E0F00" d="M15.32,48.646c0.064-0.079,0.119-0.155,0.17-0.237
				c2.052-3.812,4.113-7.631,6.167-11.441c0.336-0.635,0.635-0.717,1.266-0.37c2.679,1.47,5.352,2.947,8.04,4.428
				c0.595,0.321,0.675,0.64,0.366,1.24c-2.053,3.802-4.096,7.61-6.158,11.419c-0.321,0.592-0.64,0.687-1.228,0.36
				c-2.66-1.464-5.333-2.93-7.987-4.402c-0.235-0.134-0.412-0.351-0.636-0.527C15.32,48.955,15.32,48.797,15.32,48.646z"/>
			<path fill-rule="evenodd" clip-rule="evenodd" fill="#2E0F00" d="M84.905,49.116c-0.222,0.177-0.418,0.402-0.659,0.538
				c-2.651,1.477-5.316,2.936-7.979,4.406c-0.558,0.306-0.885,0.213-1.19-0.347c-2.07-3.827-4.131-7.666-6.195-11.49
				c-0.297-0.541-0.193-0.885,0.35-1.184c2.712-1.494,5.429-2.983,8.148-4.48c0.538-0.299,0.859-0.198,1.159,0.345
				c2.096,3.886,4.201,7.788,6.289,11.678c0.03,0.041,0.052,0.078,0.078,0.121C84.905,48.843,84.905,48.979,84.905,49.116z"/>
			<path fill-rule="evenodd" clip-rule="evenodd" fill="#2E0F00" d="M42.206,58.704c-0.603-1.994-3.08-2.558-4.415-0.825
				c-0.396-1.098-1.151-1.768-2.327-1.802c-1.173-0.028-1.945,0.609-2.41,1.718c-0.181-0.08-0.34-0.145-0.495-0.23
				c-1.782-1.036-3.569-2.08-5.343-3.113c-0.384-0.226-0.443-0.429-0.233-0.817c1.942-3.528,3.88-7.05,5.817-10.576
				c0.215-0.409,0.417-0.48,0.864-0.314c0.841,0.336,1.688,0.661,2.523,0.997c0.379,0.146,0.745,0.15,1.137,0.03
				c2.118-0.691,4.254-1.373,6.363-2.079c0.549-0.181,1.067-0.132,1.602,0c0.068,0.017,0.174,0.109,0.172,0.121
				c-0.03,0.099-0.086,0.202-0.15,0.254c-0.861,0.661-1.743,1.321-2.604,1.96c-0.904,0.657-1.813,1.305-2.732,1.948
				c-1.352,0.958-1.545,2.539-0.422,3.78c1.011,1.122,2.646,1.468,4.113,0.85c2.427-1.024,4.853-2.075,7.276-3.112
				c0.383-0.166,0.701-0.129,1.025,0.122c4.67,3.735,9.362,7.461,14.035,11.191c0.604,0.48,0.852,1.098,0.675,1.847
				c-0.181,0.729-0.642,1.216-1.388,1.376c-0.559,0.135-1.062-0.033-1.54-0.401c-2.518-2.021-5.05-4.03-7.577-6.038
				c-1.373-1.107-2.76-2.2-4.143-3.307c-0.072-0.06-0.149-0.121-0.231-0.164c-0.202-0.11-0.399-0.08-0.542,0.104
				c-0.159,0.183-0.14,0.391,0.011,0.564c0.093,0.116,0.222,0.21,0.334,0.305c3.268,2.601,6.53,5.201,9.809,7.795
				c0.525,0.417,0.799,0.951,0.738,1.625c-0.068,0.708-0.456,1.227-1.093,1.509c-0.655,0.293-1.271,0.174-1.826-0.265
				c-2.895-2.305-5.799-4.62-8.696-6.923c-0.429-0.335-0.848-0.678-1.266-1.014c-0.079-0.063-0.154-0.127-0.252-0.163
				c-0.204-0.098-0.397-0.065-0.548,0.124c-0.134,0.179-0.117,0.368,0.021,0.543c0.071,0.093,0.177,0.174,0.284,0.252
				c2.669,2.15,5.35,4.292,8.027,6.444c0.783,0.624,0.953,1.606,0.452,2.404c-0.603,0.941-1.742,1.15-2.626,0.458
				c-1.19-0.934-2.349-1.89-3.541-2.833c-0.012-0.018-0.03-0.03-0.046-0.041c-0.351-0.22-0.519-0.502-0.565-0.95
				c-0.182-1.453-1.509-2.357-2.94-2.077c-0.104,0.023-0.27-0.015-0.358-0.084c-0.372-0.269-0.692-0.581-0.946-0.997
				c-0.792-1.369-2.678-1.556-3.793-0.443C42.361,58.54,42.302,58.609,42.206,58.704z"/>
			<path fill-rule="evenodd" clip-rule="evenodd" fill="#2E0F00" d="M54.266,39.517c0.193,0.069,0.419,0.132,0.637,0.235
				c2.68,1.304,5.348,2.609,8.005,3.922c0.403,0.196,0.786,0.209,1.2,0.045c0.833-0.335,1.648-0.652,2.486-0.975
				c0.428-0.166,0.621-0.092,0.855,0.323c1.928,3.513,3.862,7.032,5.789,10.545c0.234,0.421,0.176,0.62-0.214,0.917
				c-1.732,1.277-3.459,2.557-5.198,3.827c-0.404,0.295-0.624,0.295-1.008-0.019c-4.83-3.883-9.662-7.767-14.486-11.654
				c-0.402-0.325-0.76-0.364-1.235-0.168c-2.538,1.108-5.096,2.191-7.648,3.278c-1.083,0.465-2.111,0.385-3.048-0.37
				c-0.191-0.148-0.352-0.345-0.488-0.549c-0.486-0.756-0.334-1.569,0.374-2.116c0.327-0.241,0.659-0.448,0.98-0.683
				c1.712-1.272,3.426-2.548,5.15-3.801c0.334-0.237,0.711-0.443,1.101-0.575c2.063-0.706,4.143-1.375,6.221-2.051
				C53.887,39.595,54.054,39.569,54.266,39.517z"/>
			<path fill-rule="evenodd" clip-rule="evenodd" fill="#2E0F00" d="M42.908,65.769c-1.216,0.011-2.114-1.152-1.732-2.325
				c0.406-1.304,0.853-2.608,1.313-3.896c0.338-0.921,1.348-1.367,2.267-1.052c0.89,0.318,1.43,1.293,1.128,2.219
				c-0.42,1.313-0.865,2.626-1.33,3.922C44.296,65.34,43.641,65.769,42.908,65.769z"/>
			<path fill-rule="evenodd" clip-rule="evenodd" fill="#2E0F00" d="M48.035,60.592c1.231,0,2.105,1.162,1.739,2.335
				c-0.415,1.3-0.856,2.592-1.321,3.872c-0.331,0.941-1.352,1.391-2.269,1.062c-0.909-0.32-1.417-1.313-1.119-2.249
				c0.413-1.289,0.856-2.568,1.3-3.842C46.619,61.045,47.289,60.6,48.035,60.592z"/>
			<path fill-rule="evenodd" clip-rule="evenodd" fill="#2E0F00" d="M41.622,59.341c-0.04,0.207-0.066,0.424-0.126,0.624
				c-0.243,0.722-0.486,1.444-0.736,2.161c-0.351,1.003-1.352,1.52-2.313,1.176c-0.955-0.332-1.42-1.35-1.091-2.355
				c0.252-0.747,0.491-1.494,0.76-2.243c0.313-0.842,1.149-1.32,2.006-1.169C41.001,57.705,41.607,58.443,41.622,59.341z"/>
			<path fill-rule="evenodd" clip-rule="evenodd" fill="#2E0F00" d="M37.212,58.673c-0.099,0.551-0.256,1.232-0.66,1.807
				c-0.496,0.693-1.453,0.904-2.211,0.521c-0.771-0.379-1.184-1.259-0.96-2.087c0.109-0.364,0.237-0.721,0.379-1.075
				c0.323-0.792,1.166-1.249,1.972-1.083C36.604,56.93,37.195,57.655,37.212,58.673z"/>
			<path fill-rule="evenodd" clip-rule="evenodd" fill="#2E0F00" d="M50.268,63.556c0.644,0.548,1.318,1.014,1.871,1.584
				c0.865,0.857,0.499,2.4-0.609,2.853c-0.179,0.07-0.4,0.025-0.593,0.054c-0.602,0.082-1.097-0.123-1.534-0.531
				c-0.353-0.345-0.375-0.317-0.215-0.795C49.543,65.688,49.896,64.653,50.268,63.556z"/>
		</g>
	</g>
</g>
<g>
	<g>
		<linearGradient id="SVGID_1_" gradientUnits="userSpaceOnUse" x1="68.6719" y1="16.5464" x2="98.6719" y2="16.5464">
			<stop  offset="0" style="stop-color:#DB616F"/>
			<stop  offset="0.0363" style="stop-color:#DF676F"/>
			<stop  offset="0.2067" style="stop-color:#F17D6D"/>
			<stop  offset="0.3694" style="stop-color:#FB8A6C"/>
			<stop  offset="0.5152" style="stop-color:#FF8F6C"/>
			<stop  offset="0.9767" style="stop-color:#F6786D"/>
			<stop  offset="1" style="stop-color:#F6776D"/>
		</linearGradient>
		<circle fill-rule="evenodd" clip-rule="evenodd" fill="url(#SVGID_1_)" cx="83.672" cy="16.546" r="15"/>
		<circle fill="none" stroke="#2E0F00" stroke-miterlimit="10" cx="83.672" cy="16.546" r="15"/>
	</g>
	<g>
		<path fill-rule="evenodd" clip-rule="evenodd" fill="#FFFFFF" d="M89.04,15.909c0,0.67,0,1.331,0,1.998c-1.339,0-2.666,0-4.004,0
			c0,1.339,0,2.668,0,4.003c-0.666,0-1.33,0-2.003,0c0-1.332,0-2.661,0-3.998c-1.334,0-2.659,0-3.995,0c0-0.67,0-1.333,0-2.002
			c1.329,0,2.658,0,3.995,0c0-1.334,0-2.665,0-4c0.668,0,1.332,0,2.003,0c0,1.333,0,2.662,0,4
			C86.371,15.909,87.701,15.909,89.04,15.909z"/>
	</g>
</g>
</svg>
