<?xml version="1.0" encoding="utf-8"?>
<!-- Generator: Adobe Illustrator 16.0.0, SVG Export Plug-In . SVG Version: 6.00 Build 0)  -->
<!DOCTYPE svg PUBLIC "-//W3C//DTD SVG 1.1//EN" "http://www.w3.org/Graphics/SVG/1.1/DTD/svg11.dtd">
<svg version="1.1" id="Layer_1" xmlns="http://www.w3.org/2000/svg" xmlns:xlink="http://www.w3.org/1999/xlink" x="0px" y="0px"
	 width="100px" height="100px" viewBox="0 0 100 100" enable-background="new 0 0 100 100" xml:space="preserve">
<g id="Layer_2">
</g>
<g>
	<g>
		<g>
			<path fill-rule="evenodd" clip-rule="evenodd" fill="#FF8F6C" d="M97.191,51.109c0,26.229-21.279,47.492-47.506,47.492
				c-26.223,0-47.494-21.264-47.494-47.492c0-26.234,21.271-47.508,47.494-47.508C75.912,3.602,97.191,24.875,97.191,51.109z"/>
		</g>
	</g>
	<path fill-rule="evenodd" clip-rule="evenodd" fill="#FFFFFF" d="M57.746,71.487c-3.139,0.061-5.977-0.983-8.561-2.613
		c-7.611-4.815-13.426-11.242-16.762-19.678c-1.611-4.052-1.547-8.178,0.289-12.212c1.146-2.534,3.252-4.184,5.395-5.756
		c1.119-0.813,2.5-0.646,3.553,0.401c2.049,2.032,3.607,4.415,4.531,7.143c0.582,1.742,0.16,3.327-1.367,4.507
		c-0.652,0.504-1.285,1.034-1.936,1.543c-1.781,1.354-2.184,2.627-1.414,4.742c0.635,1.757,1.746,3.228,2.865,4.679
		c1.561,2.037,3.404,3.824,5.467,5.356c0.314,0.24,0.635,0.461,0.975,0.646c1.9,1.085,3.348,0.886,4.908-0.646
		c0.49-0.485,0.967-1.005,1.463-1.497c1.559-1.53,3.438-1.925,5.32-0.844c2.303,1.319,4.303,3.075,5.977,5.118
		c1.236,1.493,1.061,2.947-0.389,4.247c-1.545,1.399-2.943,2.987-4.955,3.806C61.373,71.14,59.592,71.467,57.746,71.487z"/>
</g>
</svg>
