<?xml version="1.0" encoding="utf-8"?>
<!-- Generator: Adobe Illustrator 16.0.0, SVG Export Plug-In . SVG Version: 6.00 Build 0)  -->
<!DOCTYPE svg PUBLIC "-//W3C//DTD SVG 1.1//EN" "http://www.w3.org/Graphics/SVG/1.1/DTD/svg11.dtd">
<svg version="1.1" id="Layer_1" xmlns="http://www.w3.org/2000/svg" xmlns:xlink="http://www.w3.org/1999/xlink" x="0px" y="0px"
	 width="100px" height="100px" viewBox="0 0 100 100" enable-background="new 0 0 100 100" xml:space="preserve">
<g id="Layer_2">
</g>
<g>
	<g>
		<path fill-rule="evenodd" clip-rule="evenodd" fill="#EFEFEF" stroke="#FFFFFF" stroke-width="0.25" stroke-miterlimit="10" d="
			M49.083,89.212c-4.301,0.565-8.486,0.996-12.615,1.723c-1.259,0.22-2.373,1.282-3.55,1.961c1.139,0.698,2.268,1.426,3.435,2.081
			c0.374,0.206,0.861,0.215,1.312,0.301c7.382,1.388,14.811,1.359,22.245,0.646c2.01-0.196,4.033-0.55,5.967-1.124
			c1.114-0.326,2.042-1.239,3.057-1.895c-1.043-0.623-2.029-1.417-3.153-1.837c-1.248-0.459-2.616-0.66-3.955-0.813
			c-3.024-0.354-6.063-0.607-9.033-0.899c0-11.252,0-22.265,0-32.809c9.276-0.972,18.352-1.655,27.327-2.971
			c4.238-0.622,8.439-2.138,12.391-3.861c3.253-1.416,3.148-3.894-0.033-5.602c-2.091-1.129-4.397-1.971-6.685-2.593
			c-8.544-2.311-17.313-3.038-26.11-3.392c-14.095-0.574-28.136-0.144-41.957,2.985c-3.1,0.704-6.162,1.942-8.984,3.416
			c-2.483,1.297-2.401,3.407-0.015,4.914c1.627,1.028,3.454,2.023,5.315,2.363c7.511,1.373,15.069,2.636,22.647,3.631
			c4.066,0.541,8.205,0.469,12.396,0.67C49.083,67.263,49.083,78.286,49.083,89.212z"/>
	</g>
	<g>
		<path fill-rule="evenodd" clip-rule="evenodd" fill="#FF8F6C" stroke="#FFFFFF" stroke-width="0.25" stroke-miterlimit="10" d="
			M16.938,19.087c-1.598-1.071-3.128-2.114-4.75-3.21c0.875-1.076,1.689-2.139,2.578-3.138c2.35-2.631,4.985-4.961,8.239-6.396
			C29.254,3.587,35.367,4.09,41.228,7.51c2.311,1.349,4.397,3.033,6.152,5.085c0.187,0.215,0.35,0.436,0.536,0.669
			c1.34-0.761,2.655-1.502,3.971-2.248c0.13-0.082,0.269-0.167,0.406-0.225c0.46-0.177,0.732-0.019,0.795,0.469
			c0.028,0.163,0.02,0.345,0.02,0.517c0.009,4.889,0.009,9.778,0,14.668c0,1.435-0.354,1.655-1.594,0.961
			c-4.167-2.339-8.329-4.688-12.486-7.038c-0.206-0.115-0.406-0.22-0.617-0.339c-0.607-0.364-0.594-0.732,0.039-1.096
			c0.525-0.297,1.057-0.593,1.588-0.899c0.875-0.498,1.751-1.005,2.646-1.512c-0.058-0.086-0.082-0.148-0.12-0.191
			c-2.574-2.933-5.721-4.975-9.539-5.75c-3.842-0.794-7.382,0.191-10.573,2.411c-2.144,1.483-3.827,3.426-5.215,5.636
			C17.14,18.772,17.044,18.916,16.938,19.087z"/>
	</g>
</g>
</svg>
