<?xml version="1.0" encoding="utf-8"?>
<!-- Generator: Adobe Illustrator 16.0.0, SVG Export Plug-In . SVG Version: 6.00 Build 0)  -->
<!DOCTYPE svg PUBLIC "-//W3C//DTD SVG 1.1//EN" "http://www.w3.org/Graphics/SVG/1.1/DTD/svg11.dtd">
<svg version="1.1" id="Layer_1" xmlns="http://www.w3.org/2000/svg" xmlns:xlink="http://www.w3.org/1999/xlink" x="0px" y="0px"
	 width="100px" height="100px" viewBox="0 0 100 100" enable-background="new 0 0 100 100" xml:space="preserve">
<g id="Layer_2">
</g>
<g>
	<g>
		<linearGradient id="SVGID_1_" gradientUnits="userSpaceOnUse" x1="15.8027" y1="15.4209" x2="85.1013" y2="84.7194">
			<stop  offset="0" style="stop-color:#DB616F"/>
			<stop  offset="0.0363" style="stop-color:#DF676F"/>
			<stop  offset="0.2067" style="stop-color:#F17D6D"/>
			<stop  offset="0.3694" style="stop-color:#FB8A6C"/>
			<stop  offset="0.5152" style="stop-color:#FF8F6C"/>
			<stop  offset="0.9767" style="stop-color:#F6786D"/>
			<stop  offset="1" style="stop-color:#F6776D"/>
		</linearGradient>
		<path fill-rule="evenodd" clip-rule="evenodd" fill="url(#SVGID_1_)" d="M99.451,50.069c0,27.066-21.936,49-49,49
			c-27.063,0-49-21.934-49-49c0-27.063,21.937-49,49-49C77.516,1.069,99.451,23.006,99.451,50.069z"/>
	</g>
	<g>
		<path fill-rule="evenodd" clip-rule="evenodd" fill="#FFFFFF" d="M67.979,47.986c0,2.187,0,4.347,0,6.529
			c-4.356,0-8.704,0-13.075,0c0,4.373,0,8.714,0,13.074c-2.179,0-4.337,0-6.536,0c0-4.351,0-8.695,0-13.058
			c-4.361,0-8.698,0-13.058,0c0-2.19,0-4.358,0-6.542c4.347,0,8.69,0,13.058,0c0-4.357,0-8.707,0-13.065c2.184,0,4.352,0,6.536,0
			c0,4.35,0,8.692,0,13.062C59.266,47.986,63.613,47.986,67.979,47.986z"/>
	</g>
</g>
</svg>
