<?xml version="1.0" encoding="utf-8"?>
<!-- Generator: Adobe Illustrator 16.0.0, SVG Export Plug-In . SVG Version: 6.00 Build 0)  -->
<!DOCTYPE svg PUBLIC "-//W3C//DTD SVG 1.1//EN" "http://www.w3.org/Graphics/SVG/1.1/DTD/svg11.dtd">
<svg version="1.1" id="Layer_1" xmlns="http://www.w3.org/2000/svg" xmlns:xlink="http://www.w3.org/1999/xlink" x="0px" y="0px"
	 width="100px" height="100px" viewBox="0 0 100 100" enable-background="new 0 0 100 100" xml:space="preserve">
<g id="Layer_2">
</g>
<g>
	<path fill-rule="evenodd" clip-rule="evenodd" fill="#EFEFEF" d="M55.269,61.541c-2.692-1.932-3.766-4.511-4.121-7.375
		c-0.504-4.035-0.821-8.096-1.229-12.14c-0.684-6.826-4.349-11.511-10.45-14.389c-2.105-0.992-4.237-1.359-6.131,0.7
		c-1.51-1.701-3.371-1.842-5.252-1.042c-4.846,2.067-8.922,5.126-10.297,10.451c-0.944,3.665-1.2,7.514-1.645,11.294
		c-0.536,4.517-0.47,9.221-4.709,12.52c4.602,2.642,9.357,4.083,14.585,4.317c0.165-1.67,0.33-3.132-0.998-4.406
		c-0.749-0.719-1.177-1.764-1.581-2.388c2.096,0.875,4.285,1.787,6.469,2.708c0.617,0.259,1.271,0.47,1.818,0.84
		c0.879,0.594,1.712,0.647,2.461-0.083c0.747-0.729,0.808-1.629,0.114-2.434c-0.688-0.788-1.49-0.818-2.44-0.325
		c-0.55,0.284-1.302,0.464-1.891,0.347c-3.463-0.699-5.942-2.755-7.73-5.756c-0.277-0.463-0.741-0.898-1.229-1.147
		c-1.646-0.846-2.031-2.614-0.854-4.007c0.536-0.635,1.095-1.324,1.383-2.085c1.568-4.119,3.056-8.267,4.524-12.283
		c1.426,4.802,4.582,8.574,9.308,10.708c3.02,1.369,6.348,2.116,9.585,2.964c1.245,0.33,2.018,0.902,2.196,2.107
		c0.174,1.162-0.381,1.989-1.432,2.578c-0.415,0.237-0.83,0.779-0.924,1.248c-0.54,2.658-1.44,5.181-3.29,7.17
		c-1.21,1.303-1.167,2.626-0.917,4.249C45.824,65.658,50.589,64.221,55.269,61.541z M38.771,87.203
		c6.755,0,13.178,0.01,19.591-0.003c4.772-0.007,4.2,0.531,4.317-4.242c0.036-1.465-0.459-2.424-1.514-3.356
		c-4.975-4.374-10.568-7.592-16.979-9.347c-0.647-0.176-1.317-0.311-2.29-0.541c0.876,1.942,1.556,3.604,2.384,5.182
		c0.479,0.914,0.39,1.622-0.097,2.478C42.39,80.549,40.655,83.762,38.771,87.203z M24.794,69.747
		c-0.905,0.182-1.438,0.251-1.955,0.391c-5.708,1.535-10.759,4.31-15.492,7.836c-2.542,1.894-3.824,3.992-3.36,7.213
		c0.254,1.769,0.257,2.013,2.024,2.017c6.841,0.005,13.675,0,20.519,0c0.327,0,0.643-0.029,1.183-0.054
		c-1.775-3.263-3.396-6.371-5.157-9.396c-0.636-1.089-0.654-1.958-0.074-3.042C23.278,73.221,23.921,71.642,24.794,69.747z"/>
	<path fill-rule="evenodd" clip-rule="evenodd" fill="#EFEFEF" d="M55.269,61.541c-4.68,2.68-9.444,4.117-14.676,4.342
		c-0.25-1.623-0.293-2.946,0.917-4.249c1.85-1.989,2.75-4.512,3.29-7.17c0.094-0.469,0.509-1.011,0.924-1.248
		c1.051-0.589,1.605-1.416,1.432-2.578c-0.179-1.206-0.951-1.778-2.196-2.107c-3.237-0.848-6.565-1.595-9.585-2.964
		c-4.726-2.134-7.882-5.906-9.308-10.708c-1.469,4.016-2.956,8.164-4.524,12.283c-0.288,0.761-0.847,1.45-1.383,2.085
		c-1.177,1.393-0.792,3.161,0.854,4.007c0.487,0.249,0.951,0.685,1.229,1.147c1.788,3,4.268,5.057,7.73,5.756
		c0.589,0.117,1.341-0.063,1.891-0.347c0.95-0.493,1.753-0.463,2.44,0.325c0.693,0.804,0.633,1.704-0.114,2.434
		c-0.749,0.73-1.582,0.677-2.461,0.083c-0.547-0.37-1.201-0.581-1.818-0.84c-2.184-0.921-4.373-1.833-6.469-2.708
		c0.404,0.624,0.832,1.669,1.581,2.388c1.328,1.274,1.163,2.735,0.998,4.406c-5.228-0.234-9.983-1.676-14.585-4.317
		c4.239-3.299,4.173-8.003,4.709-12.52c0.444-3.78,0.7-7.629,1.645-11.294c1.375-5.325,5.451-8.384,10.297-10.451
		c1.881-0.8,3.742-0.659,5.252,1.042c1.894-2.059,4.025-1.692,6.131-0.7c6.102,2.878,9.767,7.563,10.45,14.389
		c0.407,4.044,0.725,8.105,1.229,12.14C51.503,57.03,52.576,59.609,55.269,61.541z"/>
	<path fill-rule="evenodd" clip-rule="evenodd" fill="#EFEFEF" d="M38.771,87.203c1.884-3.441,3.618-6.654,5.412-9.828
		c0.486-0.856,0.576-1.564,0.097-2.478c-0.828-1.578-1.508-3.24-2.384-5.182c0.973,0.229,1.643,0.365,2.29,0.541
		c6.411,1.754,12.005,4.973,16.979,9.347c1.055,0.932,1.55,1.891,1.514,3.356c-0.117,4.773,0.455,4.235-4.317,4.242
		C51.949,87.213,45.526,87.203,38.771,87.203z"/>
	<path fill-rule="evenodd" clip-rule="evenodd" fill="#EFEFEF" d="M24.794,69.747c-0.873,1.895-1.516,3.474-2.313,4.965
		c-0.58,1.084-0.562,1.954,0.074,3.042c1.762,3.024,3.382,6.133,5.157,9.396c-0.54,0.024-0.855,0.054-1.183,0.054
		c-6.844,0-13.678,0.005-20.519,0C4.243,87.2,4.24,86.955,3.986,85.187c-0.464-3.221,0.818-5.319,3.36-7.213
		c4.733-3.526,9.784-6.302,15.492-7.836C23.356,69.998,23.889,69.928,24.794,69.747z"/>
</g>
<g>
	<path fill-rule="evenodd" clip-rule="evenodd" fill="#EFEFEF" d="M61.387,53.644c1.267-1.828,2.301-3.713,3.078-5.774
		c-0.13-0.089-0.263-0.176-0.398-0.264c-2.68-1.755-4.869-3.964-6.052-6.988c-1.679-4.274-0.952-8.247,1.794-11.848
		c2.349-3.083,5.539-4.984,9.17-6.194c3.244-1.08,6.581-1.426,9.987-1.153c4.095,0.326,7.897,1.519,11.288,3.874
		c2.563,1.783,4.591,4.03,5.63,7.015c1.457,4.158,0.671,7.979-1.968,11.428c-2.34,3.059-5.504,4.954-9.098,6.17
		c-3.419,1.154-6.938,1.466-10.515,1.139c-0.814-0.073-1.62-0.258-2.431-0.356c-0.193-0.025-0.434,0.043-0.587,0.162
		c-1.658,1.27-3.393,2.399-5.427,2.965C64.372,54.239,62.896,54.269,61.387,53.644z"/>
</g>
</svg>
