<?xml version="1.0" encoding="utf-8"?>
<!-- Generator: Adobe Illustrator 16.0.0, SVG Export Plug-In . SVG Version: 6.00 Build 0)  -->
<!DOCTYPE svg PUBLIC "-//W3C//DTD SVG 1.1//EN" "http://www.w3.org/Graphics/SVG/1.1/DTD/svg11.dtd">
<svg version="1.1" id="Layer_1" xmlns="http://www.w3.org/2000/svg" xmlns:xlink="http://www.w3.org/1999/xlink" x="0px" y="0px"
	 width="100px" height="100px" viewBox="0 0 100 100" enable-background="new 0 0 100 100" xml:space="preserve">
<g id="Layer_2">
</g>
<g>
	<g>
		<linearGradient id="SVGID_1_" gradientUnits="userSpaceOnUse" x1="25.71" y1="92.8218" x2="75.2164" y2="7.0741">
			<stop  offset="0" style="stop-color:#FF5064"/>
			<stop  offset="0.06" style="stop-color:#FF6E71"/>
			<stop  offset="0.15" style="stop-color:#FF9582"/>
			<stop  offset="0.2218" style="stop-color:#FFAD8C"/>
			<stop  offset="0.266" style="stop-color:#FFB690"/>
			<stop  offset="0.312" style="stop-color:#FFB893"/>
			<stop  offset="0.3462" style="stop-color:#FFBE9C"/>
			<stop  offset="0.3765" style="stop-color:#FFC9AD"/>
			<stop  offset="0.4047" style="stop-color:#FFD8C3"/>
			<stop  offset="0.431" style="stop-color:#FFEBE0"/>
			<stop  offset="0.4532" style="stop-color:#FFFFFF"/>
			<stop  offset="0.4597" style="stop-color:#FFFBF8"/>
			<stop  offset="0.4943" style="stop-color:#FFE7D9"/>
			<stop  offset="0.5322" style="stop-color:#FFD8BF"/>
			<stop  offset="0.574" style="stop-color:#FFCBAC"/>
			<stop  offset="0.6217" style="stop-color:#FFC39E"/>
			<stop  offset="0.6805" style="stop-color:#FFBE95"/>
			<stop  offset="0.7833" style="stop-color:#FFBC93"/>
			<stop  offset="0.8835" style="stop-color:#FFBA92"/>
			<stop  offset="0.9196" style="stop-color:#FFB38F"/>
			<stop  offset="0.9453" style="stop-color:#FFA88A"/>
			<stop  offset="0.9661" style="stop-color:#FF9783"/>
			<stop  offset="0.9838" style="stop-color:#FF8179"/>
			<stop  offset="0.9993" style="stop-color:#FF666E"/>
			<stop  offset="1" style="stop-color:#FF656D"/>
		</linearGradient>
		<path fill-rule="evenodd" clip-rule="evenodd" fill="none" stroke="url(#SVGID_1_)" stroke-width="4" stroke-miterlimit="10" d="
			M97.963,49.953c0,26.229-21.276,47.494-47.5,47.494c-26.227,0-47.5-21.265-47.5-47.494c0-26.242,21.273-47.506,47.5-47.506
			C76.687,2.447,97.963,23.711,97.963,49.953z"/>
	</g>
	<linearGradient id="SVGID_2_" gradientUnits="userSpaceOnUse" x1="35.3623" y1="67.46" x2="61.6719" y2="21.8904">
		<stop  offset="0" style="stop-color:#FF5064"/>
		<stop  offset="0.06" style="stop-color:#FF6E71"/>
		<stop  offset="0.15" style="stop-color:#FF9582"/>
		<stop  offset="0.2218" style="stop-color:#FFAD8C"/>
		<stop  offset="0.266" style="stop-color:#FFB690"/>
		<stop  offset="0.312" style="stop-color:#FFB893"/>
		<stop  offset="0.3462" style="stop-color:#FFBE9C"/>
		<stop  offset="0.3765" style="stop-color:#FFC9AD"/>
		<stop  offset="0.4047" style="stop-color:#FFD8C3"/>
		<stop  offset="0.431" style="stop-color:#FFEBE0"/>
		<stop  offset="0.4532" style="stop-color:#FFFFFF"/>
		<stop  offset="0.4597" style="stop-color:#FFFBF8"/>
		<stop  offset="0.4943" style="stop-color:#FFE7D9"/>
		<stop  offset="0.5322" style="stop-color:#FFD8BF"/>
		<stop  offset="0.574" style="stop-color:#FFCBAC"/>
		<stop  offset="0.6217" style="stop-color:#FFC39E"/>
		<stop  offset="0.6805" style="stop-color:#FFBE95"/>
		<stop  offset="0.7833" style="stop-color:#FFBC93"/>
		<stop  offset="0.8835" style="stop-color:#FFBA92"/>
		<stop  offset="0.9196" style="stop-color:#FFB38F"/>
		<stop  offset="0.9453" style="stop-color:#FFA88A"/>
		<stop  offset="0.9661" style="stop-color:#FF9783"/>
		<stop  offset="0.9838" style="stop-color:#FF8179"/>
		<stop  offset="0.9993" style="stop-color:#FF666E"/>
		<stop  offset="1" style="stop-color:#FF656D"/>
	</linearGradient>
	<path fill-rule="evenodd" clip-rule="evenodd" fill="url(#SVGID_2_)" d="M42.264,52.771c10.02-8.228,20.021-16.454,30.09-24.713
		c1.864,1.975,3.697,3.929,5.609,5.945C66.29,46.612,54.64,59.207,42.941,71.836c-6.675-7.758-13.313-15.488-19.979-23.232
		c1.848-1.996,3.689-3.971,5.535-5.971C33.1,46,37.665,49.383,42.264,52.771z"/>
</g>
</svg>
