<?xml version="1.0" encoding="utf-8"?>
<!-- Generator: Adobe Illustrator 16.0.0, SVG Export Plug-In . SVG Version: 6.00 Build 0)  -->
<!DOCTYPE svg PUBLIC "-//W3C//DTD SVG 1.1//EN" "http://www.w3.org/Graphics/SVG/1.1/DTD/svg11.dtd">
<svg version="1.1" id="Layer_1" xmlns="http://www.w3.org/2000/svg" xmlns:xlink="http://www.w3.org/1999/xlink" x="0px" y="0px"
	 width="100px" height="100px" viewBox="0 0 100 100" enable-background="new 0 0 100 100" xml:space="preserve">
<g>
	<linearGradient id="SVGID_1_" gradientUnits="userSpaceOnUse" x1="73.8613" y1="92.625" x2="25.3555" y2="8.6104">
		<stop  offset="0" style="stop-color:#FF5064"/>
		<stop  offset="0.06" style="stop-color:#FF6E71"/>
		<stop  offset="0.15" style="stop-color:#FF9582"/>
		<stop  offset="0.2218" style="stop-color:#FFAD8C"/>
		<stop  offset="0.266" style="stop-color:#FFB690"/>
		<stop  offset="0.312" style="stop-color:#FFB893"/>
		<stop  offset="0.3462" style="stop-color:#FFBE9C"/>
		<stop  offset="0.3765" style="stop-color:#FFC9AD"/>
		<stop  offset="0.4047" style="stop-color:#FFD8C3"/>
		<stop  offset="0.431" style="stop-color:#FFEBE0"/>
		<stop  offset="0.4532" style="stop-color:#FFFFFF"/>
		<stop  offset="0.4597" style="stop-color:#FFFBF8"/>
		<stop  offset="0.4943" style="stop-color:#FFE7D9"/>
		<stop  offset="0.5322" style="stop-color:#FFD8BF"/>
		<stop  offset="0.574" style="stop-color:#FFCBAC"/>
		<stop  offset="0.6217" style="stop-color:#FFC39E"/>
		<stop  offset="0.6805" style="stop-color:#FFBE95"/>
		<stop  offset="0.7833" style="stop-color:#FFBC93"/>
		<stop  offset="0.8835" style="stop-color:#FFBA92"/>
		<stop  offset="0.9196" style="stop-color:#FFB38F"/>
		<stop  offset="0.9453" style="stop-color:#FFA88A"/>
		<stop  offset="0.9661" style="stop-color:#FF9783"/>
		<stop  offset="0.9838" style="stop-color:#FF8179"/>
		<stop  offset="0.9993" style="stop-color:#FF666E"/>
		<stop  offset="1" style="stop-color:#FF656D"/>
	</linearGradient>
	<path fill-rule="evenodd" clip-rule="evenodd" fill="none" stroke="url(#SVGID_1_)" stroke-width="2" stroke-miterlimit="10" d="
		M97.109,50.624c0,26.226-21.271,47.494-47.502,47.494c-26.225,0-47.498-21.268-47.498-47.494c0-26.236,21.273-47.506,47.498-47.506
		C75.839,3.117,97.109,24.388,97.109,50.624z"/>
	<g>
		<linearGradient id="SVGID_2_" gradientUnits="userSpaceOnUse" x1="71.4863" y1="65.8911" x2="32.8963" y2="27.3011">
			<stop  offset="0" style="stop-color:#FF5064"/>
			<stop  offset="0.06" style="stop-color:#FF6E71"/>
			<stop  offset="0.15" style="stop-color:#FF9582"/>
			<stop  offset="0.2218" style="stop-color:#FFAD8C"/>
			<stop  offset="0.266" style="stop-color:#FFB690"/>
			<stop  offset="0.2921" style="stop-color:#FFC3A3"/>
			<stop  offset="0.3658" style="stop-color:#FFE3D5"/>
			<stop  offset="0.4218" style="stop-color:#FFF7F3"/>
			<stop  offset="0.4532" style="stop-color:#FFFFFF"/>
			<stop  offset="0.4707" style="stop-color:#FFFAF7"/>
			<stop  offset="0.5685" style="stop-color:#FFDFCC"/>
			<stop  offset="0.6567" style="stop-color:#FFCCAD"/>
			<stop  offset="0.7312" style="stop-color:#FFC09A"/>
			<stop  offset="0.7833" style="stop-color:#FFBC93"/>
			<stop  offset="0.8835" style="stop-color:#FFBA92"/>
			<stop  offset="0.9196" style="stop-color:#FFB38F"/>
			<stop  offset="0.9453" style="stop-color:#FFA88A"/>
			<stop  offset="0.9661" style="stop-color:#FF9783"/>
			<stop  offset="0.9838" style="stop-color:#FF8179"/>
			<stop  offset="0.9993" style="stop-color:#FF666E"/>
			<stop  offset="1" style="stop-color:#FF656D"/>
		</linearGradient>
		<path fill-rule="evenodd" clip-rule="evenodd" fill="url(#SVGID_2_)" d="M76.803,26.353c-2.033,0-3.682,1.652-3.682,3.686
			c0,0.99,0.393,1.887,1.029,2.55c-1.83,1.536-3.413,3.462-4.768,5.372c-1.602,2.256-2.656,3.679-4.139,6.014
			c-0.99,1.549-2.332,3.878-3.637,6.515c-1.286,2.44-3.039,6.148-3.585,7.851c-5.114-7.529-6.892-8.768-12.928-15.989
			c-3.807,6.894-6.177,9.977-9.851,19.212c-0.002-0.006-0.008-0.018-0.017-0.04L21.414,48.038c0.451-0.565,0.723-1.276,0.723-2.048
			c0-1.812-1.477-3.284-3.283-3.284c-1.816,0-3.285,1.472-3.285,3.284c0,1.812,1.469,3.283,3.285,3.283
			c0.672,0,1.303-0.208,1.83-0.561C26.541,57.452,30.689,62.429,36,76.782c4.312-13.675,5.598-15.487,10.152-21.653
			c5.625,6.286,7.113,8.317,13.615,20.271c3.703-11.081,4.975-23.186,15.246-42.146c0.528,0.299,1.141,0.467,1.789,0.467
			c2.033,0,3.682-1.648,3.682-3.681C80.484,28.005,78.836,26.353,76.803,26.353z"/>
	</g>
</g>
<g id="Layer_2">
</g>
</svg>
