<svg xmlns="http://www.w3.org/2000/svg" xmlns:xlink="http://www.w3.org/1999/xlink" version="1.1" width="100" height="100" enable-background="new 0 0 100 100" xml:space="preserve"><rect id="backgroundrect" width="100%" height="100%" x="0" y="0" fill="none" stroke="none"/>


<g class="currentLayer" style=""><title>Layer 1</title><g id="Layer_2">
</g><g id="svg_1" class="selected" fill="#ffffff" fill-opacity="1">
	<path fill-rule="evenodd" clip-rule="evenodd" fill="#ffffff" stroke="#FFFFFF" stroke-width="0.25" stroke-miterlimit="10" d="   M90.272,99.547c-4.79-4.829-9.639-9.708-14.506-14.588c-4.783-4.836-9.588-9.671-14.341-14.484   c-19.078,13.271-42.663,6.685-53.63-9.424c-10.748-15.808-8.046-36.916,6.61-49.97C28.013-1.059,49.885-0.999,63.671,10.924   c14.865,12.83,18.42,36.213,4.327,53.405c9.634,9.574,19.281,19.147,28.802,28.616C94.464,95.317,92.428,97.368,90.272,99.547z    M39.076,6.366C20.619,6.374,5.781,21.157,5.73,39.637C5.647,58.162,20.55,73.117,39.104,73.103   c18.466,0,33.278-14.792,33.346-33.263C72.525,21.291,57.622,6.352,39.076,6.366z" id="svg_2" fill-opacity="1"/>
</g></g></svg>