<?xml version="1.0" encoding="utf-8"?>
<!-- Generator: Adobe Illustrator 16.0.0, SVG Export Plug-In . SVG Version: 6.00 Build 0)  -->
<!DOCTYPE svg PUBLIC "-//W3C//DTD SVG 1.1//EN" "http://www.w3.org/Graphics/SVG/1.1/DTD/svg11.dtd">
<svg version="1.1" id="Layer_1" xmlns="http://www.w3.org/2000/svg" xmlns:xlink="http://www.w3.org/1999/xlink" x="0px" y="0px"
	 width="100px" height="100px" viewBox="0 0 100 100" enable-background="new 0 0 100 100" xml:space="preserve">
<g id="Layer_2">
</g>
<g>
	<path fill-rule="evenodd" clip-rule="evenodd" fill="#EFEFEF" d="M3.055,52.895c0-1.91,0-3.869,0-5.774
		c0.049-0.318,0.137-0.593,0.137-0.96c0.226-1.847,0.354-3.713,0.74-5.481c2.601-12.617,9.281-22.53,19.763-29.956
		c5.28-3.811,11.324-6.122,17.677-7.42c1.631-0.294,3.375-0.558,5.05-0.798c2.409,0,4.888,0,7.337,0
		c0.265,0.059,0.549,0.142,0.823,0.142c3.438,0.186,6.681,0.842,9.972,1.768c4.496,1.386,8.768,3.399,12.656,5.941
		c3.85,2.586,7.239,5.647,10.119,9.36c3.331,4.124,6.216,8.444,7.954,13.464c1.146,3.331,2.342,6.671,2.527,10.192
		c0.099,1.205,0.177,2.415,0.245,3.615c0,2.513,0,5.109,0,7.651c-0.146,1.17-0.146,2.282-0.343,3.394
		c-1.205,6.764-3.614,13.073-7.514,18.739C85.535,83.634,79.541,89.1,72.047,92.813c-4.85,2.41-9.977,4.183-15.507,4.418
		c-1.499,0.029-3.076,0.167-4.556,0.265c-2.605,0-5.191,0-7.807,0c-0.725-0.132-1.371-0.313-2.027-0.49
		c-6.309-1.126-12.245-3.35-17.623-6.975c-6.123-4.085-11.03-9.365-14.929-15.673c-3.253-5.319-5.104-11.045-6.034-17.133
		C3.29,55.809,3.191,54.325,3.055,52.895z M52.083,72.124c0.46,0,0.833,0,1.116,0c6.025,0,12.059,0,18.074,0
		c2.331,0,2.409,0.01,3.164-2.317c1.605-5.383,2.596-10.849,2.771-16.511c0.107-1.489-0.078-1.567-1.567-1.67c0,0-0.01,0-0.098,0
		c-7.425,0.074-14.841,0.103-22.261,0.123c-0.73,0.01-1.014,0.245-1.014,0.99c-0.099,5.75-0.285,11.5-0.383,17.255
		C51.818,70.649,51.984,71.389,52.083,72.124z M48.091,51.808c-0.357,0-0.46-0.069-0.563-0.079c-6.67,0-13.361,0-20.032,0
		c-1.014,0-2.042,0.079-3.075,0.079c-0.726,0-1.01,0.372-1.01,1.033c0,0.367,0,0.642,0,1.009c0.284,2.699,0.559,5.432,0.931,8.165
		c0.471,3.066,1.112,6.122,2.321,9.007c0.383,0.925,0.932,1.244,1.861,1.259c5.682,0.039,11.402,0.123,17.074,0.123
		c2.303,0,2.322,0,2.405-2.307c0.015-2.89,0.088-5.755,0.088-8.64C48.091,58.233,48.091,55.064,48.091,51.808z M52.27,28.621
		c0,1.298,0,2.463,0,3.625c-0.099,4.584-0.099,9.179-0.099,13.729c0,1.254,0,1.278,1.293,1.387c0.372,0.049,0.745,0.098,1.117,0.098
		c6.034,0,12.059,0.088,18.073,0.088c1.028,0,2.115-0.063,3.174-0.142c1.117-0.103,1.303-0.23,1.205-1.347
		c0-1.479-0.088-2.968-0.274-4.388c-0.559-4.173-1.215-8.307-2.694-12.304c-0.186-0.627-0.46-0.833-1.116-0.813
		c-6.583,0.069-13.176,0.069-19.749,0.069C52.916,28.621,52.681,28.621,52.27,28.621z M48.184,47.448c0-5.819,0-11.49,0-17.157
		c0-1.67-0.093-1.67-1.743-1.67c-6.044-0.088-12.166,0-18.289-0.069c-0.931-0.02-1.4,0.441-1.67,1.283
		c-1.298,3.341-1.954,6.945-2.405,10.482c-0.293,2.033-0.479,3.987-0.666,6.024c-0.078,0.745,0.187,1.117,1.029,1.117
		c0.641,0,1.303,0.088,1.939,0.088c6.965-0.02,14.018-0.088,20.963-0.088C47.527,47.458,47.719,47.458,48.184,47.448z M78.14,71.947
		c3.253,0,6.309,0.083,9.375,0c0.46,0,1.019-0.47,1.391-0.867c0.471-0.495,0.843-1.087,1.112-1.646
		c1.396-2.582,2.229-5.28,2.963-8.062c0.734-2.885,1.4-5.75,1.4-8.718c0-1.029-0.098-1.215-1.204-1.215
		c-3.351-0.029-6.69,0-10.021,0c-1.479,0.025-1.733,0.368-1.861,1.797c-0.27,2.013-0.372,4.124-0.744,6.093
		c-0.559,3.34-1.195,6.583-1.852,9.879C78.512,70.096,78.326,71.022,78.14,71.947z M28.681,24.315
		c0.294,0.039,0.489,0.137,0.656,0.137c2.792,0,5.574,0.088,8.356,0.088c3.075,0,6.161-0.186,9.276-0.274
		c1.214-0.098,1.303-0.187,1.322-1.396c0.078-0.744,0.167-1.483,0.167-2.312c0-4.085,0-8.125,0-12.176
		c0-1.557-0.279-1.841-1.861-1.724c-0.363,0.068-0.637,0.068-0.921,0.255c-1.94,0.931-3.948,1.67-5.652,2.875
		c-4.447,2.953-7.611,7.058-10.119,11.735C29.455,22.41,29.082,23.341,28.681,24.315z M62.74,76.022
		c-3.197,0.069-6.2,0.088-9.168,0.191c-1.401,0.083-1.489,0.186-1.588,1.572c-0.088,2.508-0.156,5.005-0.186,7.518
		c0,2.312,0,4.638,0.098,7.053c0,1.111,0.187,1.298,1.303,1.111c1.939-0.186,3.791-0.793,5.496-1.772
		c3.781-2.038,6.739-5.06,9.247-8.532c1.298-1.852,2.321-3.899,3.438-5.839c0.265-0.553,0.176-0.925-0.598-0.95
		C68.04,76.214,65.293,76.111,62.74,76.022z M12.938,51.729L12.938,51.729c-1.146,0-2.326-0.103-3.438,0
		c-2.498,0.079-2.684,0.313-2.419,2.782c0.666,5.652,2.155,11.128,4.927,16.139c0.559,1.093,1.382,1.67,2.605,1.69
		c2.225,0.064,4.447,0.064,6.672-0.02c1.479-0.069,1.381-0.171,1.116-1.587c-0.843-3.894-1.665-7.788-2.419-11.667
		c-0.373-2.023-0.52-4.104-0.735-6.143c-0.098-0.827-0.519-1.195-1.303-1.195C16.279,51.729,14.613,51.729,12.938,51.729z
		 M83.625,28.194c0-0.034,0-0.034,0-0.034c-1.582,0.088-3.154,0.187-4.76,0.372c-0.804,0.088-0.912,0.373-0.716,1.137
		c0.304,0.911,0.646,1.733,0.838,2.576c1.2,4.413,1.759,8.904,2.12,13.391c0.108,1.538,0.285,1.769,1.852,1.822
		c3.258,0,6.505,0,9.757,0c1.382-0.02,1.577-0.372,1.479-1.67c-0.284-4.08-1.391-7.979-2.782-11.79
		c-0.656-1.567-1.431-3.051-2.136-4.594c-0.411-0.784-1.009-1.244-1.949-1.244C86.064,28.248,84.82,28.194,83.625,28.194z
		 M71.831,24.222c-0.078-0.303-0.078-0.426-0.078-0.509c-0.107-0.186-0.187-0.353-0.235-0.47c-2.185-4.457-4.771-8.537-8.591-11.775
		c-2.498-2.145-5.191-3.712-8.346-4.643c-1.421-0.471-1.852-0.099-1.939,1.386c-0.099,2.229-0.284,4.491-0.284,6.754
		c-0.088,2.625-0.088,5.221-0.039,7.817c0.034,1.298,0.137,1.386,1.381,1.484c0.431,0.063,0.882,0.088,1.352,0.088
		c4.545,0.015,9.091,0.054,13.626,0C69.711,24.354,70.725,24.267,71.831,24.222z M13.39,47.83c0,0,0-0.024,0-0.098
		c1.303,0,2.703,0.098,4.046,0c1.625,0,1.9-0.372,2.086-1.944c0.284-2.327,0.461-4.639,0.843-6.96
		c0.548-2.974,1.194-5.941,1.939-8.885c0.284-1.059,0.226-1.323-0.931-1.401c-2.224-0.02-4.535-0.01-6.76-0.107
		c-1.596,0-2.518,0.842-3.154,2.146c-1.586,2.86-2.517,6.112-3.447,9.203c-0.734,2.199-0.823,4.423-0.734,6.646
		c0,1.028,0.181,1.303,1.204,1.4C10.156,47.914,11.725,47.83,13.39,47.83z M47.631,93.097c0-0.186,0.015-0.284,0.015-0.372
		c0.073-5.006,0.161-9.933,0.167-14.938c0-0.274,0-0.559-0.055-0.784c-0.039-0.602-0.416-0.891-0.965-0.891
		c-0.627,0-1.195,0.103-1.764,0.103c-4.074,0.083-8.076,0.083-12.156,0.186c-1.009,0-2.037,0.083-3.047,0.142
		c-0.852,0.044-1.116,0.46-0.656,1.156c1.479,2.312,2.881,4.638,4.487,6.779c2.37,3.056,5.152,5.652,8.503,7.508
		C43.815,92.911,45.598,93.469,47.631,93.097z M85.564,24.208c-0.489-3.277-13.547-13.768-18.063-14.512
		c0.353,0.661,0.617,1.195,0.989,1.67c2.39,3.062,4.555,6.226,6.392,9.649c0.475,0.842,0.945,1.67,1.504,2.513
		c0.273,0.47,0.646,0.764,1.205,0.75c2.262-0.01,4.516,0.078,6.769,0.078C84.732,24.354,85.178,24.267,85.564,24.208z
		 M67.384,90.501c0,0.083,0.099,0.162,0.099,0.186c0.538-0.186,1.009-0.289,1.479-0.558c5.838-2.88,10.854-6.779,15.203-11.687
		c0.471-0.559,0.882-1.215,1.4-1.959c-0.371-0.108-0.646-0.27-0.832-0.27c-2.508,0-5.006,0-7.523,0.083
		c-0.549,0-0.921,0.289-1.195,0.745c-2.223,4.565-5.055,8.816-8.169,12.803C67.668,90.06,67.502,90.314,67.384,90.501z
		 M32.501,10.538c-3.879,0.382-15.987,10.393-16.956,13.817c0.259,0.098,0.548,0.186,0.822,0.216
		c1.764,0.068,3.526,0.068,5.23,0.151c1.45,0.103,2.479-0.455,3.194-1.852c1.87-3.898,4.231-7.493,6.817-10.946
		C31.942,11.551,32.129,11.096,32.501,10.538z M32.314,89.756c0.079-0.098,0.099-0.186,0.187-0.284
		c-0.187-0.274-0.372-0.559-0.544-0.745c-0.788-1.111-1.68-2.224-2.424-3.335c-1.479-2.317-2.871-4.727-4.262-7.053
		c-0.559-1.014-1.195-1.856-2.508-1.856c-1.949,0-3.986,0-6.034,0.078c-0.176,0.015-0.421,0.107-0.734,0.21
		c0.284,0.368,0.372,0.74,0.656,0.926c1.753,1.856,3.419,3.712,5.28,5.466c2.508,2.326,5.289,4.266,8.346,5.843
		C30.934,89.286,31.678,89.473,32.314,89.756z"/>
</g>
</svg>
